{
  "file_generated_by": "FlutterFire CLI",
  "purpose": "FirebaseAppID & ProjectID for this Firebase app in this directory",
  "GOOGLE_APP_ID": "1:272972853445:ios:366d6b750153e31e6600ac",
  "FIREBASE_PROJECT_ID": "sah-rasan-wala",
  "GCM_SENDER_ID": "272972853445"
}