<svg width="13" height="9" viewBox="0 0 13 9" fill="none" xmlns="http://www.w3.org/2000/svg">
<path d="M13 0.946309L4.08571 9L0 5.30872L1.04743 4.36242L4.08571 7.10067L11.9526 0L13 0.946309Z" fill="#E0273D"/>
</svg>
